{
    "name": "sprocket-network-mesh",
    "keywords": "sprocket, network, mesh, wifi",
    "description": "Wifi mesh networking for Sprockets",
    "authors":
    {
        "name": "Patrick Balsiger",
        "email": "patrick.balsiger@wirelos.net",
        "url": "https://gitlab.com/0x1d"
    },
    "repository":
    {
        "type": "git",
        "url": "https://gitlab.com/wirelos/sprocket-networking-mesh"
    },
    "frameworks": "arduino",
    "platforms": "espressif8266, esp32",
    "examples": "examples/*",
    "export": {
        "exclude":
        [
            "src/examples/"
        ]
    }
}